{
  "type": "service_account",
  "project_id": "assignment-part2n3",
  "private_key_id": "c4decf3cbc8d4fedcfb0085f126e467e234c8be3",
  "private_key": "-----BEGIN PRIVATE KEY-----\nMIIEvQIBADANBgkqhkiG9w0BAQEFAASCBKcwggSjAgEAAoIBAQCok4IU+GQL26oO\nwHQFxRDkdv68tOf8LFuyosuYEamK0K+nPPHmg+IRAykw0MthmaRzrlDShFmRAEFk\nrK5oABOA5OAROfuc2tRS8NdFNEXNbsPkQDtfWP8Oyn1pOSYxRY1D14FEmY3K2Gep\nz4Or4eHRLsGRwOThkD3uVdlEz8Ufnckuta24LsyV+ydTMAPcJyurVoKiaRrKlDCA\naDKaBl8H857ebzMjMej0LdA361vcZxjTS2sv/jMvOXDqi0V4wIA88TX00iVpcrRe\nrrO97bDjt414jvI/j+UL4IOgrUJXHPhW5a0rA9pe6i41iqIRo85QBlEDPJLi9d7I\nG7cyJVivAgMBAAECggEAGT5tnmJL6RKt9qOPPEX0b6H6J5wXmUWzPZ7vSghrESSL\nCUoxF0nskoucoXjC3Ay7+a7C36N+Hh6hrEfHnj9UrFqZyzqZmTWT0g/KzMw1H7xU\njVupCHA1Uau0+Arc00gNDXm6G+G6wAOEEoPGvfiHbmHIDuGJ5NVK0OP+MzXB2Sfz\nbvBWcU14bjJKgSxbBRT16hUWtsnXPIBRu/BRSZUkiZEbVaf9XuRUWUUCKGBjgHgl\n1/p0eweho5ODQ0lYY7ZKeTPjgTNxTLzAq4X50vS1hsHUClJkYOqD2Sfi9H3Ynf3y\n3614juQaA5PqiscAe7cwfYDsp4Ybbt/t55PcDU8mEQKBgQDZOhzxvlaNP2DlVHQ9\nf0hs7b5uhVqz2vJK8j4vPCY6GCoGZYdvUbPHW74VNfc7h0Czvom0TPiN6Ir7CvFo\nWrvsg3XhyeNBkmvEe2OFz0ERwbPXRNiuNKLBinlPPvgz5rtfyVvk5c0giatYFzK9\ny9cme7SiNjFr+Tei8knmiS1aPQKBgQDGql05WcnNnZZuWpVEoTa7AmFvd46wOfyd\nZaBbEVSV3fRaDn7S0gWwjX9YKSvmS/olbhCIJ9T0BZhRfWaJWzIrSuxdD3eC2b0U\nS6tzZiFrIggFZIg7tqXaoc7P5ETPG78CrVpnzEQBeKUWUnkyF5XEWTZXZ2VUYUg0\nOzFZQ4SpWwKBgBj5rIBC4RKmWc6kMiUr8DjN8NomLPKG1tq1FV867C47vwEzRSoQ\nW7otGyK3LLDEcTT5UD3Rp7YxKWGJtY3I+NhNmQ0XuDA+1HMnuJ6W4KVY/wNeIAeP\nd7MG58GrvL/C5IIz1YPww+/cxD2BlUzrFdaP3InV70K5yaLLdqGx3ewFAoGAARp5\nIhRplobFix9drN/oWemNeP0FAd2QlZ824Mqb2ak97jIeajVYar6ecnLoF4NchFC0\nLs1p1WEik3FK3IBxKuRjo7CuTT/AWRiCf0WV8e5idQU17H77NNepOmZeK3hP+0fT\nNLhhuFBfOlyC59BRuKF2N84PNgTETeX2RDSny/kCgYEAluioSmBIsfG1WO4kmL5R\nkdtXnXYuVcpYF56nMXMypIfRw+keh/EvOqbQt6XItMuNKDuF+F5anZgthn1UAHSa\nDwkhE+JDfMB+Q+dA08jMBdC3DBFXN63g6iQb6rPyk30GluiPru94v+X9kRbLTnem\nFEsT8AZqkpOOyTydP2o80O0=\n-----END PRIVATE KEY-----\n",
  "client_email": "restful-api@assignment-part2n3.iam.gserviceaccount.com",
  "client_id": "103944055662742016301",
  "auth_uri": "https://accounts.google.com/o/oauth2/auth",
  "token_uri": "https://accounts.google.com/o/oauth2/token",
  "auth_provider_x509_cert_url": "https://www.googleapis.com/oauth2/v1/certs",
  "client_x509_cert_url": "https://www.googleapis.com/robot/v1/metadata/x509/restful-api%40assignment-part2n3.iam.gserviceaccount.com"
}
